{
  "type": "service_account",
  "project_id": "kata-data-production-300706",
  "private_key_id": "cb57027d8d1d412e7970f2a48432e035101f71d4",
  "private_key": "-----BEGIN PRIVATE KEY-----\nMIIEvQIBADANBgkqhkiG9w0BAQEFAASCBKcwggSjAgEAAoIBAQDpZZ5LnIunBa7m\nEjX/t0poqEEeH/0vDZhEtyzJCM2wubKpAgKN4w6Mhil/irtBG53ip+IXsZuYnrLC\nArLlMZdID7kir0A3HVLbPLe4fZWRWoTxF08bCtNTYe2upPbe6nvP9xl+oEdRAlm2\nQDvxKXcyWpVYl/7pLNJIUbH4KRqX6g9gE1G9TC2lIoeqPQLnnY9DqIHE8WldgE9g\nLDqotpICX7f8euINfSN+2hcg16auBsUAftCdQ84ElD1QNeEBV+/6GzQVKOzEYzmL\nGPteTN7tbDy9ivQKXB3/jCQzhxxTLYG3IJ48XGdDFuZfXGM1VNh6Y1xWTEAdjf6Y\n5vOLnSbDAgMBAAECggEADfw30wILYDO3+jNHJw59l+3VERALpMEkyaFMPrOXV6qY\n6QWkz4m2encjj2/prooQGN/EbXUIBMolnfh5bcBd90Rx7IEh0Ouh5l8qBxUHXFFX\nO/cQl2c7qHhqvJdH762PQ7PjxDGodFM2uvP4Y4f/i3XgExHwhVpZM1op1tvnqwiP\nGi54TApTwxhNGc5QARZbLmKFepmNfxIvvynn3FyjqAT7PV/ciQLlKkV7TIv65UBh\n2Vt5N80ACJvYupH1Nc0z47VVCtnaddSyZH71EgTOxFGY4j7fFUT9uQIsxv06sn2i\nPRjOwF2DB07iR+iucU9bhjhRaauUEBDMrqUTJrahcQKBgQD8ZiwFYn6U7EZSbELa\ndj1jyEDoHqtEH/E8GXgeNE6ZVymoHII4DUiJ+rodt22y82kBEguaBJLB2vhs+HNO\n1fOHGkT4sxV5CucolB/GrXUoUa9u1LGBu1yZ5aEGdiG1ju8g5/wGHR19Ivtmh/X3\noAQTcKbllp2HNNTD/Y3mGLjfSwKBgQDsuguklptIcjC/C9HAszGbXU5yIvrYV1RZ\n60PaVbv/7VZQY7aRTVyuCj5AE1hjH4MH8PivLfY5frBkS9nK9yX6YjOqQkUr5/Rk\nVG7FadvmQPg+gKCDtH5gLoZpesWToqY+NgJhJ+YZucPpRET0e3K+i+4pkJ25pj0w\neTRMgEUTaQKBgGZ7TdB554+sR/lbf+GYNOD5BHG7Uir9FUQjy0PoVSmp3H4n5S/B\nJPzxUvSR7/bDIpWOsCs/RB92O3xzfM47zP/ESND6VfOp26X8TtKqx3ExiZvkvJZC\nbx0FwdYPzSwc9zdTOl95HuoadB1zgwmibUU/bmS2PQwTBXj20NDmpNn1AoGBAKNA\nun7LDlOrzEo0UHbgHTnT4yF7VhqUPyuzv5t2vKwGdRwDaAhUnbG4hq2RqcbSGH8F\ng7rrq36DDApe9NewEZTW3GJySVm6ISR/xdSG6IumCoywEAJEG1MhQrjDXjYuWQ9W\nF9YAugLLxXu9BQDFkaAuyBQKE3vQVSp0q8iGPRzhAoGAD1hPKH1w6yqZAeG7xACB\njYzAcl6+zL/FrbPJ1MPEQOQVxBLZLm7QI8HUyEV7RCr8qeMvx9vUqWSbnH2FLv3w\n1swdoXv9SVb/gAju627mqF/6ujUW5E47P28RMBiGQtflpQApTgU79qw49HUVRIkG\nwP4Lyt29KxoXKrk9NwBccQc=\n-----END PRIVATE KEY-----\n",
  "client_email": "google-analytics@kata-data-production-300706.iam.gserviceaccount.com",
  "client_id": "100983909440455077495",
  "auth_uri": "https://accounts.google.com/o/oauth2/auth",
  "token_uri": "https://oauth2.googleapis.com/token",
  "auth_provider_x509_cert_url": "https://www.googleapis.com/oauth2/v1/certs",
  "client_x509_cert_url": "https://www.googleapis.com/robot/v1/metadata/x509/google-analytics%40kata-data-production-300706.iam.gserviceaccount.com"
}
